[
 
    {
        "name": "Offer-2",
        "id": "1",
        "image": "https://tinyurl.com/y3w8oaah",
        "type": 1,
        "item_id": "2"
    },
    {
        "name": "Offer-3",
        "id": "2",
        "image": "https://tinyurl.com/y4vaulog",
        "type": 1,
        "item_id": "3"
    },
    {
        "name": "Offer-4",
        "id": "3",
        "image": "https://tinyurl.com/y3j7rq6g",
        "type": 1,
        "item_id": "4"
    },
    {
        "name": "Offer-5",
        "id": "4",
        "image": "https://tinyurl.com/y28jpmyr",
        "type": 1,
        "item_id": "5"
    },
    {
        "name": "Offer-6",
        "id": "5",
        "image": "https://tinyurl.com/y2w7fbdo",
        "type": 1,
        "item_id": "6"
    },
    {
        "name": "Offer-7",
        "id": "6",
        "image": "https://tinyurl.com/yy2f6lha",
        "type": 1,
        "item_id": "7"
    }
]